MSRB
├── 1
│   └── accounts.json
├── 2
│   └── accounts.json
├── 3
│   └── accounts.json
├── 4
│   └── accounts.json
├── 5
│   └── accounts.json
├── 6
│   └── accounts.json
├── 7
│   └── accounts.json
├── 8
│   └── accounts.json
├── 9
│   └── accounts.json
├── 10
│   └── accounts.json
├── 11
│   └── accounts.json
├── 12
│   └── accounts.json
├── 13
│   └── accounts.json
├── 14
│   └── accounts.json
├── 15
│   └── accounts.json
├── 16
│   └── accounts.json
├── 17
│   └── accounts.json
├── 18
│   └── accounts.json
├── 19
│   └── accounts.json
└── 20
    └── accounts.json